task3/clktick.vcd
$version Generated by VerilatedVcd $end
$date Fri Nov  4 10:26:21 2022 $end
$timescale 1ps $end

 $scope module TOP $end
  $var wire 16 & N [15:0] $end
  $var wire  1 # clk $end
  $var wire  1 % en $end
  $var wire  1 $ rst $end
  $var wire  1 ' tick $end
  $scope module clktick $end
   $var wire 16 & N [15:0] $end
   $var wire 32 ) WIDTH [31:0] $end
   $var wire  1 # clk $end
   $var wire 16 ( count [15:0] $end
   $var wire  1 % en $end
   $var wire  1 $ rst $end
   $var wire  1 ' tick $end
  $upscope $end
 $upscope $end
$enddefinitions $end


#0
1#
0$
0%
b0000000000110000 &
0'
b0000000000000000 (
b00000000000000000000000000010000 )
#1
0#
#2
1#
1$
#3
0#
#4
1#
b0000000000110000 (
#5
0#
#6
1#
0$
#7
0#
#8
1#
1%
#9
0#
#10
1#
b0000000000101111 (
#11
0#
#12
1#
b0000000000101110 (
#13
0#
#14
1#
b0000000000101101 (
#15
0#
#16
1#
b0000000000101100 (
#17
0#
#18
1#
b0000000000101011 (
#19
0#
#20
1#
b0000000000101010 (
#21
0#
#22
1#
b0000000000101001 (
#23
0#
#24
1#
b0000000000101000 (
#25
0#
#26
1#
b0000000000100111 (
#27
0#
#28
1#
b0000000000100110 (
#29
0#
#30
1#
b0000000000100101 (
#31
0#
#32
1#
b0000000000100100 (
#33
0#
#34
1#
b0000000000100011 (
#35
0#
#36
1#
b0000000000100010 (
#37
0#
#38
1#
b0000000000100001 (
#39
0#
#40
1#
b0000000000100000 (
#41
0#
#42
1#
b0000000000011111 (
#43
0#
#44
1#
b0000000000011110 (
#45
0#
#46
1#
b0000000000011101 (
#47
0#
#48
1#
b0000000000011100 (
#49
0#
#50
1#
b0000000000011011 (
#51
0#
#52
1#
b0000000000011010 (
#53
0#
#54
1#
b0000000000011001 (
#55
0#
#56
1#
b0000000000011000 (
#57
0#
#58
1#
b0000000000010111 (
#59
0#
#60
1#
b0000000000010110 (
#61
0#
#62
1#
b0000000000010101 (
#63
0#
#64
1#
b0000000000010100 (
#65
0#
#66
1#
b0000000000010011 (
#67
0#
#68
1#
b0000000000010010 (
#69
0#
#70
1#
b0000000000010001 (
#71
0#
#72
1#
b0000000000010000 (
#73
0#
#74
1#
b0000000000001111 (
#75
0#
#76
1#
b0000000000001110 (
#77
0#
#78
1#
b0000000000001101 (
#79
0#
#80
1#
b0000000000001100 (
#81
0#
#82
1#
b0000000000001011 (
#83
0#
#84
1#
b0000000000001010 (
#85
0#
#86
1#
b0000000000001001 (
#87
0#
#88
1#
b0000000000001000 (
#89
0#
#90
1#
b0000000000000111 (
#91
0#
#92
1#
b0000000000000110 (
#93
0#
#94
1#
b0000000000000101 (
#95
0#
#96
1#
b0000000000000100 (
#97
0#
#98
1#
b0000000000000011 (
#99
0#
#100
1#
b0000000000000010 (
#101
0#
#102
1#
b0000000000000001 (
#103
0#
#104
1#
b0000000000000000 (
#105
0#
#106
1#
1'
b0000000000110000 (
#107
0#
#108
1#
0'
b0000000000101111 (
#109
0#
#110
1#
b0000000000101110 (
#111
0#
#112
1#
b0000000000101101 (
#113
0#
#114
1#
b0000000000101100 (
#115
0#
#116
1#
b0000000000101011 (
#117
0#
#118
1#
b0000000000101010 (
#119
0#
#120
1#
b0000000000101001 (
#121
0#
#122
1#
b0000000000101000 (
#123
0#
#124
1#
b0000000000100111 (
#125
0#
#126
1#
b0000000000100110 (
#127
0#
#128
1#
b0000000000100101 (
#129
0#
#130
1#
b0000000000100100 (
#131
0#
#132
1#
b0000000000100011 (
#133
0#
#134
1#
b0000000000100010 (
#135
0#
#136
1#
b0000000000100001 (
#137
0#
#138
1#
b0000000000100000 (
#139
0#
#140
1#
b0000000000011111 (
#141
0#
#142
1#
b0000000000011110 (
#143
0#
#144
1#
b0000000000011101 (
#145
0#
#146
1#
b0000000000011100 (
#147
0#
#148
1#
b0000000000011011 (
#149
0#
#150
1#
b0000000000011010 (
#151
0#
#152
1#
b0000000000011001 (
#153
0#
#154
1#
b0000000000011000 (
#155
0#
#156
1#
b0000000000010111 (
#157
0#
#158
1#
b0000000000010110 (
#159
0#
#160
1#
b0000000000010101 (
#161
0#
#162
1#
b0000000000010100 (
#163
0#
#164
1#
b0000000000010011 (
#165
0#
#166
1#
b0000000000010010 (
#167
0#
#168
1#
b0000000000010001 (
#169
0#
#170
1#
b0000000000010000 (
#171
0#
#172
1#
b0000000000001111 (
#173
0#
#174
1#
b0000000000001110 (
#175
0#
#176
1#
b0000000000001101 (
#177
0#
#178
1#
b0000000000001100 (
#179
0#
#180
1#
b0000000000001011 (
#181
0#
#182
1#
b0000000000001010 (
#183
0#
#184
1#
b0000000000001001 (
#185
0#
#186
1#
b0000000000001000 (
#187
0#
#188
1#
b0000000000000111 (
#189
0#
#190
1#
b0000000000000110 (
#191
0#
#192
1#
b0000000000000101 (
#193
0#
#194
1#
b0000000000000100 (
#195
0#
#196
1#
b0000000000000011 (
#197
0#
#198
1#
b0000000000000010 (
#199
0#
#200
1#
b0000000000000001 (
#201
0#
#202
1#
b0000000000000000 (
#203
0#
#204
1#
1'
b0000000000110000 (
#205
0#
#206
1#
0'
b0000000000101111 (
#207
0#
#208
1#
b0000000000101110 (
#209
0#
#210
1#
b0000000000101101 (
#211
0#
#212
1#
b0000000000101100 (
#213
0#
#214
1#
b0000000000101011 (
#215
0#
#216
1#
b0000000000101010 (
#217
0#
#218
1#
b0000000000101001 (
#219
0#
#220
1#
b0000000000101000 (
#221
0#
#222
1#
b0000000000100111 (
#223
0#
#224
1#
b0000000000100110 (
#225
0#
#226
1#
b0000000000100101 (
#227
0#
#228
1#
b0000000000100100 (
#229
0#
#230
1#
b0000000000100011 (
#231
0#
#232
1#
b0000000000100010 (
#233
0#
#234
1#
b0000000000100001 (
#235
0#
#236
1#
b0000000000100000 (
#237
0#
#238
1#
b0000000000011111 (
#239
0#
#240
1#
b0000000000011110 (
#241
0#
#242
1#
b0000000000011101 (
#243
0#
#244
1#
b0000000000011100 (
#245
0#
#246
1#
b0000000000011011 (
#247
0#
#248
1#
b0000000000011010 (
#249
0#
#250
1#
b0000000000011001 (
#251
0#
#252
1#
b0000000000011000 (
#253
0#
#254
1#
b0000000000010111 (
#255
0#
#256
1#
b0000000000010110 (
#257
0#
#258
1#
b0000000000010101 (
#259
0#
#260
1#
b0000000000010100 (
#261
0#
#262
1#
b0000000000010011 (
#263
0#
#264
1#
b0000000000010010 (
#265
0#
#266
1#
b0000000000010001 (
#267
0#
#268
1#
b0000000000010000 (
#269
0#
#270
1#
b0000000000001111 (
#271
0#
#272
1#
b0000000000001110 (
#273
0#
#274
1#
b0000000000001101 (
#275
0#
#276
1#
b0000000000001100 (
#277
0#
#278
1#
b0000000000001011 (
#279
0#
#280
1#
b0000000000001010 (
#281
0#
#282
1#
b0000000000001001 (
#283
0#
#284
1#
b0000000000001000 (
#285
0#
#286
1#
b0000000000000111 (
#287
0#
#288
1#
b0000000000000110 (
#289
0#
#290
1#
b0000000000000101 (
#291
0#
#292
1#
b0000000000000100 (
#293
0#
#294
1#
b0000000000000011 (
#295
0#
#296
1#
b0000000000000010 (
#297
0#
#298
1#
b0000000000000001 (
#299
0#
#300
1#
b0000000000000000 (
#301
0#
#302
1#
1'
b0000000000110000 (
#303
0#
#304
1#
0'
b0000000000101111 (
#305
0#
#306
1#
b0000000000101110 (
#307
0#
#308
1#
b0000000000101101 (
#309
0#
#310
1#
b0000000000101100 (
#311
0#
#312
1#
b0000000000101011 (
#313
0#
#314
1#
b0000000000101010 (
#315
0#
#316
1#
b0000000000101001 (
#317
0#
#318
1#
b0000000000101000 (
#319
0#
#320
1#
b0000000000100111 (
#321
0#
#322
1#
b0000000000100110 (
#323
0#
#324
1#
b0000000000100101 (
#325
0#
#326
1#
b0000000000100100 (
#327
0#
#328
1#
b0000000000100011 (
#329
0#
#330
1#
b0000000000100010 (
#331
0#
#332
1#
b0000000000100001 (
#333
0#
#334
1#
b0000000000100000 (
#335
0#
#336
1#
b0000000000011111 (
#337
0#
#338
1#
b0000000000011110 (
#339
0#
#340
1#
b0000000000011101 (
#341
0#
#342
1#
b0000000000011100 (
#343
0#
#344
1#
b0000000000011011 (
#345
0#
#346
1#
b0000000000011010 (
#347
0#
#348
1#
b0000000000011001 (
#349
0#
#350
1#
b0000000000011000 (
#351
0#
#352
1#
b0000000000010111 (
#353
0#
#354
1#
b0000000000010110 (
#355
0#
#356
1#
b0000000000010101 (
#357
0#
#358
1#
b0000000000010100 (
#359
0#
#360
1#
b0000000000010011 (
#361
0#
#362
1#
b0000000000010010 (
#363
0#
#364
1#
b0000000000010001 (
#365
0#
#366
1#
b0000000000010000 (
#367
0#
#368
1#
b0000000000001111 (
#369
0#
#370
1#
b0000000000001110 (
#371
0#
#372
1#
b0000000000001101 (
#373
0#
#374
1#
b0000000000001100 (
#375
0#
#376
1#
b0000000000001011 (
#377
0#
#378
1#
b0000000000001010 (
#379
0#
#380
1#
b0000000000001001 (
#381
0#
#382
1#
b0000000000001000 (
#383
0#
#384
1#
b0000000000000111 (
#385
0#
#386
1#
b0000000000000110 (
#387
0#
#388
1#
b0000000000000101 (
#389
0#
#390
1#
b0000000000000100 (
#391
0#
#392
1#
b0000000000000011 (
#393
0#
#394
1#
b0000000000000010 (
#395
0#
#396
1#
b0000000000000001 (
#397
0#
#398
1#
b0000000000000000 (
#399
0#
#400
1#
1'
b0000000000110000 (
#401
0#
#402
1#
0'
b0000000000101111 (
#403
0#
#404
1#
b0000000000101110 (
#405
0#
#406
1#
b0000000000101101 (
#407
0#
#408
1#
b0000000000101100 (
#409
0#
#410
1#
b0000000000101011 (
#411
0#
#412
1#
b0000000000101010 (
#413
0#
#414
1#
b0000000000101001 (
#415
0#
#416
1#
b0000000000101000 (
#417
0#
#418
1#
b0000000000100111 (
#419
0#
#420
1#
b0000000000100110 (
#421
0#
#422
1#
b0000000000100101 (
#423
0#
#424
1#
b0000000000100100 (
#425
0#
#426
1#
b0000000000100011 (
#427
0#
#428
1#
b0000000000100010 (
#429
0#
#430
1#
b0000000000100001 (
#431
0#
#432
1#
b0000000000100000 (
#433
0#
#434
1#
b0000000000011111 (
#435
0#
#436
1#
b0000000000011110 (
#437
0#
#438
1#
b0000000000011101 (
#439
0#
#440
1#
b0000000000011100 (
#441
0#
#442
1#
b0000000000011011 (
#443
0#
#444
1#
b0000000000011010 (
#445
0#
#446
1#
b0000000000011001 (
#447
0#
#448
1#
b0000000000011000 (
#449
0#
#450
1#
b0000000000010111 (
#451
0#
#452
1#
b0000000000010110 (
#453
0#
#454
1#
b0000000000010101 (
#455
0#
#456
1#
b0000000000010100 (
#457
0#
#458
1#
b0000000000010011 (
#459
0#
#460
1#
b0000000000010010 (
#461
0#
#462
1#
b0000000000010001 (
#463
0#
#464
1#
b0000000000010000 (
#465
0#
#466
1#
b0000000000001111 (
#467
0#
#468
1#
b0000000000001110 (
#469
0#
#470
1#
b0000000000001101 (
#471
0#
#472
1#
b0000000000001100 (
#473
0#
#474
1#
b0000000000001011 (
#475
0#
#476
1#
b0000000000001010 (
#477
0#
#478
1#
b0000000000001001 (
#479
0#
#480
1#
b0000000000001000 (
#481
0#
#482
1#
b0000000000000111 (
#483
0#
#484
1#
b0000000000000110 (
#485
0#
#486
1#
b0000000000000101 (
#487
0#
#488
1#
b0000000000000100 (
#489
0#
#490
1#
b0000000000000011 (
#491
0#
#492
1#
b0000000000000010 (
#493
0#
#494
1#
b0000000000000001 (
#495
0#
#496
1#
b0000000000000000 (
#497
0#
#498
1#
1'
b0000000000110000 (
#499
0#
#500
1#
0'
b0000000000101111 (
#501
0#
#502
1#
b0000000000101110 (
#503
0#
#504
1#
b0000000000101101 (
#505
0#
#506
1#
b0000000000101100 (
#507
0#
#508
1#
b0000000000101011 (
#509
0#
#510
1#
b0000000000101010 (
#511
0#
#512
1#
b0000000000101001 (
#513
0#
#514
1#
b0000000000101000 (
#515
0#
#516
1#
b0000000000100111 (
#517
0#
#518
1#
b0000000000100110 (
#519
0#
#520
1#
b0000000000100101 (
#521
0#
#522
1#
b0000000000100100 (
#523
0#
#524
1#
b0000000000100011 (
#525
0#
#526
1#
b0000000000100010 (
#527
0#
#528
1#
b0000000000100001 (
#529
0#
#530
1#
b0000000000100000 (
#531
0#
#532
1#
b0000000000011111 (
#533
0#
#534
1#
b0000000000011110 (
#535
0#
#536
1#
b0000000000011101 (
#537
0#
#538
1#
b0000000000011100 (
#539
0#
#540
1#
b0000000000011011 (
#541
0#
#542
1#
b0000000000011010 (
#543
0#
#544
1#
b0000000000011001 (
#545
0#
#546
1#
b0000000000011000 (
#547
0#
#548
1#
b0000000000010111 (
#549
0#
#550
1#
b0000000000010110 (
#551
0#
#552
1#
b0000000000010101 (
#553
0#
#554
1#
b0000000000010100 (
#555
0#
#556
1#
b0000000000010011 (
#557
0#
#558
1#
b0000000000010010 (
#559
0#
#560
1#
b0000000000010001 (
#561
0#
#562
1#
b0000000000010000 (
#563
0#
#564
1#
b0000000000001111 (
#565
0#
#566
1#
b0000000000001110 (
#567
0#
#568
1#
b0000000000001101 (
#569
0#
#570
1#
b0000000000001100 (
#571
0#
#572
1#
b0000000000001011 (
#573
0#
#574
1#
b0000000000001010 (
#575
0#
#576
1#
b0000000000001001 (
#577
0#
#578
1#
b0000000000001000 (
#579
0#
#580
1#
b0000000000000111 (
#581
0#
#582
1#
b0000000000000110 (
#583
0#
#584
1#
b0000000000000101 (
#585
0#
#586
1#
b0000000000000100 (
#587
0#
#588
1#
b0000000000000011 (
#589
0#
#590
1#
b0000000000000010 (
#591
0#
#592
1#
b0000000000000001 (
#593
0#
#594
1#
b0000000000000000 (
#595
0#
#596
1#
1'
b0000000000110000 (
#597
0#
#598
1#
0'
b0000000000101111 (
#599
0#
#600
1#
b0000000000101110 (
#601
0#
#602
1#
b0000000000101101 (
#603
0#
#604
1#
b0000000000101100 (
#605
0#
#606
1#
b0000000000101011 (
#607
0#
#608
1#
b0000000000101010 (
#609
0#
#610
1#
b0000000000101001 (
#611
0#
#612
1#
b0000000000101000 (
#613
0#
#614
1#
b0000000000100111 (
#615
0#
#616
1#
b0000000000100110 (
#617
0#
#618
1#
b0000000000100101 (
#619
0#
#620
1#
b0000000000100100 (
#621
0#
#622
1#
b0000000000100011 (
#623
0#
#624
1#
b0000000000100010 (
#625
0#
#626
1#
b0000000000100001 (
#627
0#
#628
1#
b0000000000100000 (
#629
0#
#630
1#
b0000000000011111 (
#631
0#
#632
1#
b0000000000011110 (
#633
0#
#634
1#
b0000000000011101 (
#635
0#
#636
1#
b0000000000011100 (
#637
0#
#638
1#
b0000000000011011 (
#639
0#
#640
1#
b0000000000011010 (
#641
0#
#642
1#
b0000000000011001 (
#643
0#
#644
1#
b0000000000011000 (
#645
0#
#646
1#
b0000000000010111 (
#647
0#
#648
1#
b0000000000010110 (
#649
0#
#650
1#
b0000000000010101 (
#651
0#
#652
1#
b0000000000010100 (
#653
0#
#654
1#
b0000000000010011 (
#655
0#
#656
1#
b0000000000010010 (
#657
0#
#658
1#
b0000000000010001 (
#659
0#
#660
1#
b0000000000010000 (
#661
0#
#662
1#
b0000000000001111 (
#663
0#
#664
1#
b0000000000001110 (
#665
0#
#666
1#
b0000000000001101 (
#667
0#
#668
1#
b0000000000001100 (
#669
0#
#670
1#
b0000000000001011 (
#671
0#
#672
1#
b0000000000001010 (
#673
0#
#674
1#
b0000000000001001 (
#675
0#
#676
1#
b0000000000001000 (
#677
0#
#678
1#
b0000000000000111 (
#679
0#
#680
1#
b0000000000000110 (
#681
0#
#682
1#
b0000000000000101 (
#683
0#
#684
1#
b0000000000000100 (
#685
0#
#686
1#
b0000000000000011 (
#687
0#
#688
1#
b0000000000000010 (
#689
0#
#690
1#
b0000000000000001 (
#691
0#
#692
1#
b0000000000000000 (
#693
0#
#694
1#
1'
b0000000000110000 (
#695
0#
#696
1#
0'
b0000000000101111 (
#697
0#
#698
1#
b0000000000101110 (
#699
0#
#700
1#
b0000000000101101 (
#701
0#
#702
1#
b0000000000101100 (
#703
0#
#704
1#
b0000000000101011 (
#705
0#
#706
1#
b0000000000101010 (
#707
0#
#708
1#
b0000000000101001 (
#709
0#
#710
1#
b0000000000101000 (
#711
0#
#712
1#
b0000000000100111 (
#713
0#
#714
1#
b0000000000100110 (
#715
0#
#716
1#
b0000000000100101 (
#717
0#
#718
1#
b0000000000100100 (
#719
0#
#720
1#
b0000000000100011 (
#721
0#
#722
1#
b0000000000100010 (
#723
0#
#724
1#
b0000000000100001 (
#725
0#
#726
1#
b0000000000100000 (
#727
0#
#728
1#
b0000000000011111 (
#729
0#
#730
1#
b0000000000011110 (
#731
0#
#732
1#
b0000000000011101 (
#733
0#
#734
1#
b0000000000011100 (
#735
0#
#736
1#
b0000000000011011 (
#737
0#
#738
1#
b0000000000011010 (
#739
0#
#740
1#
b0000000000011001 (
#741
0#
#742
1#
b0000000000011000 (
#743
0#
#744
1#
b0000000000010111 (
#745
0#
#746
1#
b0000000000010110 (
#747
0#
#748
1#
b0000000000010101 (
#749
0#
#750
1#
b0000000000010100 (
#751
0#
#752
1#
b0000000000010011 (
#753
0#
#754
1#
b0000000000010010 (
#755
0#
#756
1#
b0000000000010001 (
#757
0#
#758
1#
b0000000000010000 (
#759
0#
#760
1#
b0000000000001111 (
#761
0#
#762
1#
b0000000000001110 (
#763
0#
#764
1#
b0000000000001101 (
#765
0#
#766
1#
b0000000000001100 (
#767
0#
#768
1#
b0000000000001011 (
#769
0#
#770
1#
b0000000000001010 (
#771
0#
#772
1#
b0000000000001001 (
#773
0#
#774
1#
b0000000000001000 (
#775
0#
#776
1#
b0000000000000111 (
#777
0#
#778
1#
b0000000000000110 (
#779
0#
#780
1#
b0000000000000101 (
#781
0#
#782
1#
b0000000000000100 (
#783
0#
#784
1#
b0000000000000011 (
#785
0#
#786
1#
b0000000000000010 (
#787
0#
#788
1#
b0000000000000001 (
#789
0#
#790
1#
b0000000000000000 (
#791
0#
#792
1#
1'
b0000000000110000 (
#793
0#
#794
1#
0'
b0000000000101111 (
#795
0#
#796
1#
b0000000000101110 (
#797
0#
#798
1#
b0000000000101101 (
#799
0#
#800
1#
b0000000000101100 (
#801
0#
#802
1#
b0000000000101011 (
#803
0#
#804
1#
b0000000000101010 (
#805
0#
#806
1#
b0000000000101001 (
#807
0#
#808
1#
b0000000000101000 (
#809
0#
#810
1#
b0000000000100111 (
#811
0#
#812
1#
b0000000000100110 (
#813
0#
#814
1#
b0000000000100101 (
#815
0#
#816
1#
b0000000000100100 (
#817
0#
#818
1#
b0000000000100011 (
#819
0#
#820
1#
b0000000000100010 (
#821
0#
#822
1#
b0000000000100001 (
#823
0#
#824
1#
b0000000000100000 (
#825
0#
#826
1#
b0000000000011111 (
#827
0#
#828
1#
b0000000000011110 (
#829
0#
#830
1#
b0000000000011101 (
#831
0#
#832
1#
b0000000000011100 (
#833
0#
#834
1#
b0000000000011011 (
#835
0#
#836
1#
b0000000000011010 (
#837
0#
#838
1#
b0000000000011001 (
#839
0#
#840
1#
b0000000000011000 (
#841
0#
#842
1#
b0000000000010111 (
#843
0#
#844
1#
b0000000000010110 (
#845
0#
#846
1#
b0000000000010101 (
#847
0#
#848
1#
b0000000000010100 (
#849
0#
#850
1#
b0000000000010011 (
#851
0#
#852
1#
b0000000000010010 (
#853
0#
#854
1#
b0000000000010001 (
#855
0#
#856
1#
b0000000000010000 (
#857
0#
#858
1#
b0000000000001111 (
#859
0#
#860
1#
b0000000000001110 (
#861
0#
#862
1#
b0000000000001101 (
#863
0#
#864
1#
b0000000000001100 (
#865
0#
#866
1#
b0000000000001011 (
#867
0#
#868
1#
b0000000000001010 (
#869
0#
#870
1#
b0000000000001001 (
#871
0#
#872
1#
b0000000000001000 (
#873
0#
#874
1#
b0000000000000111 (
#875
0#
#876
1#
b0000000000000110 (
#877
0#
#878
1#
b0000000000000101 (
#879
0#
#880
1#
b0000000000000100 (
#881
0#
#882
1#
b0000000000000011 (
#883
0#
#884
1#
b0000000000000010 (
#885
0#
#886
1#
b0000000000000001 (
#887
0#
#888
1#
b0000000000000000 (
#889
0#
#890
1#
1'
b0000000000110000 (
#891
0#
#892
1#
0'
b0000000000101111 (
#893
0#
#894
1#
b0000000000101110 (
#895
0#
#896
1#
b0000000000101101 (
#897
0#
#898
1#
b0000000000101100 (
#899
0#
#900
1#
b0000000000101011 (
#901
0#
#902
1#
b0000000000101010 (
#903
0#
#904
1#
b0000000000101001 (
#905
0#
#906
1#
b0000000000101000 (
#907
0#
#908
1#
b0000000000100111 (
#909
0#
#910
1#
b0000000000100110 (
#911
0#
#912
1#
b0000000000100101 (
#913
0#
#914
1#
b0000000000100100 (
#915
0#
#916
1#
b0000000000100011 (
#917
0#
#918
1#
b0000000000100010 (
#919
0#
#920
1#
b0000000000100001 (
#921
0#
#922
1#
b0000000000100000 (
#923
0#
#924
1#
b0000000000011111 (
#925
0#
#926
1#
b0000000000011110 (
#927
0#
#928
1#
b0000000000011101 (
#929
0#
#930
1#
b0000000000011100 (
#931
0#
#932
1#
b0000000000011011 (
#933
0#
#934
1#
b0000000000011010 (
#935
0#
#936
1#
b0000000000011001 (
#937
0#
#938
1#
b0000000000011000 (
#939
0#
#940
1#
b0000000000010111 (
#941
0#
#942
1#
b0000000000010110 (
#943
0#
#944
1#
b0000000000010101 (
#945
0#
#946
1#
b0000000000010100 (
#947
0#
#948
1#
b0000000000010011 (
#949
0#
#950
1#
b0000000000010010 (
#951
0#
#952
1#
b0000000000010001 (
#953
0#
#954
1#
b0000000000010000 (
#955
0#
#956
1#
b0000000000001111 (
#957
0#
#958
1#
b0000000000001110 (
#959
0#
#960
1#
b0000000000001101 (
#961
0#
#962
1#
b0000000000001100 (
#963
0#
#964
1#
b0000000000001011 (
#965
0#
#966
1#
b0000000000001010 (
#967
0#
#968
1#
b0000000000001001 (
#969
0#
#970
1#
b0000000000001000 (
#971
0#
#972
1#
b0000000000000111 (
#973
0#
#974
1#
b0000000000000110 (
#975
0#
#976
1#
b0000000000000101 (
#977
0#
#978
1#
b0000000000000100 (
#979
0#
#980
1#
b0000000000000011 (
#981
0#
#982
1#
b0000000000000010 (
#983
0#
#984
1#
b0000000000000001 (
#985
0#
#986
1#
b0000000000000000 (
#987
0#
#988
1#
1'
b0000000000110000 (
#989
0#
#990
1#
0'
b0000000000101111 (
#991
0#
#992
1#
b0000000000101110 (
#993
0#
#994
1#
b0000000000101101 (
#995
0#
#996
1#
b0000000000101100 (
#997
0#
#998
1#
b0000000000101011 (
#999
0#
#1000
1#
b0000000000101010 (
#1001
0#
#1002
1#
b0000000000101001 (
#1003
0#
#1004
1#
b0000000000101000 (
#1005
0#
#1006
1#
b0000000000100111 (
#1007
0#
#1008
1#
b0000000000100110 (
#1009
0#
#1010
1#
b0000000000100101 (
#1011
0#
#1012
1#
b0000000000100100 (
#1013
0#
#1014
1#
b0000000000100011 (
#1015
0#
#1016
1#
b0000000000100010 (
#1017
0#
#1018
1#
b0000000000100001 (
#1019
0#
#1020
1#
b0000000000100000 (
#1021
0#
#1022
1#
b0000000000011111 (
#1023
0#
#1024
1#
b0000000000011110 (
#1025
0#
#1026
1#
b0000000000011101 (
#1027
0#
#1028
1#
b0000000000011100 (
#1029
0#
#1030
1#
b0000000000011011 (
#1031
0#
#1032
1#
b0000000000011010 (
#1033
0#
#1034
1#
b0000000000011001 (
#1035
0#
#1036
1#
b0000000000011000 (
#1037
0#
#1038
1#
b0000000000010111 (
#1039
0#
#1040
1#
b0000000000010110 (
#1041
0#
#1042
1#
b0000000000010101 (
#1043
0#
#1044
1#
b0000000000010100 (
#1045
0#
#1046
1#
b0000000000010011 (
#1047
0#
#1048
1#
b0000000000010010 (
#1049
0#
#1050
1#
b0000000000010001 (
#1051
0#
#1052
1#
b0000000000010000 (
#1053
0#
#1054
1#
b0000000000001111 (
#1055
0#
#1056
1#
b0000000000001110 (
#1057
0#
#1058
1#
b0000000000001101 (
#1059
0#
#1060
1#
b0000000000001100 (
#1061
0#
#1062
1#
b0000000000001011 (
#1063
0#
#1064
1#
b0000000000001010 (
#1065
0#
#1066
1#
b0000000000001001 (
#1067
0#
#1068
1#
b0000000000001000 (
#1069
0#
#1070
1#
b0000000000000111 (
#1071
0#
#1072
1#
b0000000000000110 (
#1073
0#
#1074
1#
b0000000000000101 (
#1075
0#
#1076
1#
b0000000000000100 (
#1077
0#
#1078
1#
b0000000000000011 (
#1079
0#
#1080
1#
b0000000000000010 (
#1081
0#
#1082
1#
b0000000000000001 (
#1083
0#
#1084
1#
b0000000000000000 (
#1085
0#
#1086
1#
1'
b0000000000110000 (
#1087
0#
#1088
1#
0'
b0000000000101111 (
#1089
0#
#1090
1#
b0000000000101110 (
#1091
0#
#1092
1#
b0000000000101101 (
#1093
0#
#1094
1#
b0000000000101100 (
#1095
0#
#1096
1#
b0000000000101011 (
#1097
0#
#1098
1#
b0000000000101010 (
#1099
0#
#1100
1#
b0000000000101001 (
#1101
0#
#1102
1#
b0000000000101000 (
#1103
0#
#1104
1#
b0000000000100111 (
#1105
0#
#1106
1#
b0000000000100110 (
#1107
0#
#1108
1#
b0000000000100101 (
#1109
0#
#1110
1#
b0000000000100100 (
#1111
0#
#1112
1#
b0000000000100011 (
#1113
0#
#1114
1#
b0000000000100010 (
#1115
0#
#1116
1#
b0000000000100001 (
#1117
0#
#1118
1#
b0000000000100000 (
#1119
0#
#1120
1#
b0000000000011111 (
#1121
0#
#1122
1#
b0000000000011110 (
#1123
0#
#1124
1#
b0000000000011101 (
#1125
0#
#1126
1#
b0000000000011100 (
#1127
0#
#1128
1#
b0000000000011011 (
#1129
0#
#1130
1#
b0000000000011010 (
#1131
0#
#1132
1#
b0000000000011001 (
#1133
0#
#1134
1#
b0000000000011000 (
#1135
0#
#1136
1#
b0000000000010111 (
#1137
0#
#1138
1#
b0000000000010110 (
#1139
0#
#1140
1#
b0000000000010101 (
#1141
0#
#1142
1#
b0000000000010100 (
#1143
0#
#1144
1#
b0000000000010011 (
#1145
0#
#1146
1#
b0000000000010010 (
#1147
0#
#1148
1#
b0000000000010001 (
#1149
0#
#1150
1#
b0000000000010000 (
#1151
0#
#1152
1#
b0000000000001111 (
#1153
0#
#1154
1#
b0000000000001110 (
#1155
0#
#1156
1#
b0000000000001101 (
#1157
0#
#1158
1#
b0000000000001100 (
#1159
0#
#1160
1#
b0000000000001011 (
#1161
0#
#1162
1#
b0000000000001010 (
#1163
0#
#1164
1#
b0000000000001001 (
#1165
0#
#1166
1#
b0000000000001000 (
#1167
0#
#1168
1#
b0000000000000111 (
#1169
0#
#1170
1#
b0000000000000110 (
#1171
0#
#1172
1#
b0000000000000101 (
#1173
0#
#1174
1#
b0000000000000100 (
#1175
0#
#1176
1#
b0000000000000011 (
#1177
0#
#1178
1#
b0000000000000010 (
#1179
0#
#1180
1#
b0000000000000001 (
#1181
0#
#1182
1#
b0000000000000000 (
#1183
0#
#1184
1#
1'
b0000000000110000 (
#1185
0#
#1186
1#
0'
b0000000000101111 (
#1187
0#
#1188
1#
b0000000000101110 (
#1189
0#
#1190
1#
b0000000000101101 (
#1191
0#
#1192
1#
b0000000000101100 (
#1193
0#
#1194
1#
b0000000000101011 (
#1195
0#
#1196
1#
b0000000000101010 (
#1197
0#
#1198
1#
b0000000000101001 (
#1199
0#
#1200
1#
b0000000000101000 (
#1201
0#
#1202
1#
b0000000000100111 (
#1203
0#
#1204
1#
b0000000000100110 (
#1205
0#
#1206
1#
b0000000000100101 (
#1207
0#
#1208
1#
b0000000000100100 (
#1209
0#
#1210
1#
b0000000000100011 (
#1211
0#
#1212
1#
b0000000000100010 (
#1213
0#
#1214
1#
b0000000000100001 (
#1215
0#
#1216
1#
b0000000000100000 (
#1217
0#
#1218
1#
b0000000000011111 (
#1219
0#
#1220
1#
b0000000000011110 (
#1221
0#
#1222
1#
b0000000000011101 (
#1223
0#
#1224
1#
b0000000000011100 (
#1225
0#
#1226
1#
b0000000000011011 (
#1227
0#
#1228
1#
b0000000000011010 (
#1229
0#
#1230
1#
b0000000000011001 (
#1231
0#
#1232
1#
b0000000000011000 (
#1233
0#
#1234
1#
b0000000000010111 (
#1235
0#
#1236
1#
b0000000000010110 (
#1237
0#
#1238
1#
b0000000000010101 (
#1239
0#
#1240
1#
b0000000000010100 (
#1241
0#
#1242
1#
b0000000000010011 (
#1243
0#
#1244
1#
b0000000000010010 (
#1245
0#
#1246
1#
b0000000000010001 (
#1247
0#
#1248
1#
b0000000000010000 (
#1249
0#
#1250
1#
b0000000000001111 (
#1251
0#
#1252
1#
b0000000000001110 (
#1253
0#
#1254
1#
b0000000000001101 (
#1255
0#
#1256
1#
b0000000000001100 (
#1257
0#
#1258
1#
b0000000000001011 (
#1259
0#
#1260
1#
b0000000000001010 (
#1261
0#
#1262
1#
b0000000000001001 (
#1263
0#
#1264
1#
b0000000000001000 (
#1265
0#
#1266
1#
b0000000000000111 (
#1267
0#
#1268
1#
b0000000000000110 (
#1269
0#
#1270
1#
b0000000000000101 (
#1271
0#
#1272
1#
b0000000000000100 (
#1273
0#
#1274
1#
b0000000000000011 (
#1275
0#
#1276
1#
b0000000000000010 (
#1277
0#
#1278
1#
b0000000000000001 (
#1279
0#
#1280
1#
b0000000000000000 (
#1281
0#
#1282
1#
1'
b0000000000110000 (
#1283
0#
#1284
1#
0'
b0000000000101111 (
#1285
0#
#1286
1#
b0000000000101110 (
#1287
0#
#1288
1#
b0000000000101101 (
#1289
0#
#1290
1#
b0000000000101100 (
#1291
0#
#1292
1#
b0000000000101011 (
#1293
0#
#1294
1#
b0000000000101010 (
#1295
0#
#1296
1#
b0000000000101001 (
#1297
0#
#1298
1#
b0000000000101000 (
#1299
0#
